Day 2: Modeling in R
…
sample_n() (and sample_frac())

If you’ve used plyr before, many of these will be familar.

1.1.2 Filter rows with filter()

filter() allows you to select a subset of rows in a data frame. The first argument is the name of the data frame. The second and subsequent arguments are the expressions that filter the data frame:

For example, we can select all flights on January 1st with:

library(dplyr)
filter(flights, month == 1, day == 1)

## # A tibble: 842 × 19
##     year month   day dep_time sched_dep_time dep_delay arr_time
##    <int> <int> <int>    <int>          <int>     <dbl>    <int>
## 1   2013     1     1      517            515         2      830
## 2   2013     1     1      533            529         4      850
## 3   2013     1     1      542            540         2      923
## 4   2013     1     1      544            545        -1     1004
## 5   2013     1     1      554            600        -6      812
## 6   2013     1     1      554            558        -4      740
## 7   2013     1     1      555            600        -5      913
## 8   2013     1     1      557            600        -3      709
## 9   2013     1     1      557            600        -3      838
## 10  2013     1     1      558            600        -2      753
## # ... with 832 more rows, and 12 more variables: sched_arr_time <int>,
## #   arr_delay <dbl>, carrier <chr>, flight <int>, tailnum <chr>,
## #   origin <chr>, dest <chr>, air_time <dbl>, distance <dbl>, hour <dbl>,
## #   minute <dbl>, time_hour <dttm>
…
1.1.3 Arrange rows with arrange()

arrange() works similarly to filter() except that instead of filtering or selecting rows, it reorders them. It takes a data frame, and a set of column names (or more complicated expressions) to order by. If you provide more than one column name, each additional column will be used to break ties in the values of preceding columns:

arrange(flights, year, month, day)

## # A tibble: 336,776 × 19
##     year month   day dep_time sched_dep_time dep_delay arr_time
##    <int> <int> <int>    <int>          <int>     <dbl>    <int>
## 1   2013     1     1      517            515         2      830
## 2   2013     1     1      533            529         4      850
## 3   2013     1     1      542            540         2      923
## 4   2013     1     1      544            545        -1     1004
## 5   2013     1     1      554            600        -6      812
## 6   2013     1     1      554            558        -4      740
## 7   2013     1     1      555            600        -5      913
## 8   2013     1     1      557            600        -3      709
## 9   2013     1     1      557            600        -3      838
## 10  2013     1     1      558            600        -2      753
## # ... with 336,766 more rows, and 12 more variables: sched_arr_time <int>,
## #   arr_delay <dbl>, carrier <chr>, flight <int>, tailnum <chr>,
## #   origin <chr>, dest <chr>, air_time <dbl>, distance <dbl>, hour <dbl>,
## #   minute <dbl>, time_hour <dttm>

Use desc() to order a column in descending order:

arrange(flights, desc(arr_delay))

## # A tibble: 336,776 × 19
##     year month   day dep_time sched_dep_time dep_delay arr_time
##    <int> <int> <int>    <int>          <int>     <dbl>    <int>
## 1   2013     1     9      641            900      1301     1242
## 2   2013     6    15     1432           1935      1137     1607
## 3   2013     1    10     1121           1635      1126     1239
## 4   2013     9    20     1139           1845      1014     1457
## 5   2013     7    22      845           1600      1005     1044
## 6   2013     4    10     1100           1900       960     1342
## 7   2013     3    17     2321            810       911      135
## 8   2013     7    22     2257            759       898      121
## 9   2013    12     5      756           1700       896     1058
## 10  2013     5     3     1133           2055       878     1250
## # ... with 336,766 more rows, and 12 more variables: sched_arr_time <int>,
## #   arr_delay <dbl>, carrier <chr>, flight <int>, tailnum <chr>,
## #   origin <chr>, dest <chr>, air_time <dbl>, distance <dbl>, hour <dbl>,
## #   minute <dbl>, time_hour <dttm>

1.1.4 Select columns with select()

Often you work with large datasets with many columns but only a few are actually of interest to you. select() allows you to rapidly zoom in on a useful subset using operations that usually only work on numeric variable positions:

# Select columns by name
select(flights, year, month, day)

## # A tibble: 336,776 × 3
##     year month   day
##    <int> <int> <int>
## 1   2013     1     1
## 2   2013     1     1
## 3   2013     1     1
## 4   2013     1     1
## 5   2013     1     1
## 6   2013     1     1
## 7   2013     1     1
## 8   2013     1     1
## 9   2013     1     1
## 10  2013     1     1
## # ... with 336,766 more rows

# Select all columns between year and day (inclusive)
select(flights, year:day)

## # A tibble: 336,776 × 3
##     year month   day
##    <int> <int> <int>
## 1   2013     1     1
## 2   2013     1     1
## 3   2013     1     1
## 4   2013     1     1
## 5   2013     1     1
## 6   2013     1     1
## 7   2013     1     1
## 8   2013     1     1
## 9   2013     1     1
## 10  2013     1     1
## # ... with 336,766 more rows

# Select all columns except those from year to day (inclusive)
select(flights, -(year:day))

## # A tibble: 336,776 × 16
##    dep_time sched_dep_time dep_delay arr_time sched_arr_time arr_delay
##       <int>          <int>     <dbl>    <int>          <int>     <dbl>
## 1       517            515         2      830            819        11
## 2       533            529         4      850            830        20
## 3       542            540         2      923            850        33
## 4       544            545        -1     1004           1022       -18
## 5       554            600        -6      812            837       -25
## 6       554            558        -4      740            728        12
## 7       555            600        -5      913            854        19
## 8       557            600        -3      709            723       -14
## 9       557            600        -3      838            846        -8
## 10      558            600        -2      753            745         8
## # ... with 336,766 more rows, and 10 more variables: carrier <chr>,
## #   flight <int>, tailnum <chr>, origin <chr>, dest <chr>, air_time <dbl>,
## #   distance <dbl>, hour <dbl>, minute <dbl>, time_hour <dttm>

You can rename variables with select() by using named arguments:

select(flights, tail_num = tailnum)

## # A tibble: 336,776 × 1
##    tail_num
##       <chr>
## 1    N14228
## 2    N24211
## 3    N619AA
## 4    N804JB
## 5    N668DN
## 6    N39463
## 7    N516JB
## 8    N829AS
## 9    N593JB
## 10   N3ALAA
## # ... with 336,766 more rows

But because select() drops all the variables not explicitly mentioned, it’s not that useful. Instead, use rename():

rename(flights, tail_num = tailnum)

## # A tibble: 336,776 × 19
##     year month   day dep_time sched_dep_time dep_delay arr_time
##    <int> <int> <int>    <int>          <int>     <dbl>    <int>
## 1   2013     1     1      517            515         2      830
## 2   2013     1     1      533            529         4      850
## 3   2013     1     1      542            540         2      923
## 4   2013     1     1      544            545        -1     1004
## 5   2013     1     1      554            600        -6      812
## 6   2013     1     1      554            558        -4      740
## 7   2013     1     1      555            600        -5      913
## 8   2013     1     1      557            600        -3      709
## 9   2013     1     1      557            600        -3      838
## 10  2013     1     1      558            600        -2      753
## # ... with 336,766 more rows, and 12 more variables: sched_arr_time <int>,
## #   arr_delay <dbl>, carrier <chr>, flight <int>, tail_num <chr>,
## #   origin <chr>, dest <chr>, air_time <dbl>, distance <dbl>, hour <dbl>,
## #   minute <dbl>, time_hour <dttm>

1.1.5 Extract distinct (unique) rows

Use distinct()to find unique values in a table:

distinct(flights, tailnum)

## # A tibble: 4,044 × 1
##    tailnum
##      <chr>
## 1   N14228
## 2   N24211
## 3   N619AA
## 4   N804JB
## 5   N668DN
## 6   N39463
## 7   N516JB
## 8   N829AS
## 9   N593JB
## 10  N3ALAA
## # ... with 4,034 more rows

distinct(flights, origin, dest)

## # A tibble: 224 × 2
##    origin  dest
##     <chr> <chr>
## 1     EWR   IAH
## 2     LGA   IAH
## 3     JFK   MIA
## 4     JFK   BQN
## 5     LGA   ATL
## 6     EWR   ORD
## 7     EWR   FLL
## 8     LGA   IAD
## 9     JFK   MCO
## 10    LGA   ORD
## # ... with 214 more rows

(This is very similar to base::unique() but should be much faster.)

1.1.6 Add new columns with mutate()

Besides selecting sets of existing columns, it’s often useful to add new columns that are functions of existing columns. This is the job of mutate():

mutate(flights,
  gain = arr_delay - dep_delay,
  speed = distance / air_time * 60)

## # A tibble: 336,776 × 21
##     year month   day dep_time sched_dep_time dep_delay arr_time
##    <int> <int> <int>    <int>          <int>     <dbl>    <int>
## 1   2013     1     1      517            515         2      830
## 2   2013     1     1      533            529         4      850
## 3   2013     1     1      542            540         2      923
## 4   2013     1     1      544            545        -1     1004
## 5   2013     1     1      554            600        -6      812
## 6   2013     1     1      554            558        -4      740
## 7   2013     1     1      555            600        -5      913
## 8   2013     1     1      557            600        -3      709
## 9   2013     1     1      557            600        -3      838
## 10  2013     1     1      558            600        -2      753
## # ... with 336,766 more rows, and 14 more variables: sched_arr_time <int>,
## #   arr_delay <dbl>, carrier <chr>, flight <int>, tailnum <chr>,
## #   origin <chr>, dest <chr>, air_time <dbl>, distance <dbl>, hour <dbl>,
## #   minute <dbl>, time_hour <dttm>, gain <dbl>, speed <dbl>

mutate allows you to refer to columns that you’ve just created:

mutate(flights,
  gain = arr_delay - dep_delay,
  gain_per_hour = gain / (air_time / 60)
)

## # A tibble: 336,776 × 21
##     year month   day dep_time sched_dep_time dep_delay arr_time
##    <int> <int> <int>    <int>          <int>     <dbl>    <int>
## 1   2013     1     1      517            515         2      830
## 2   2013     1     1      533            529         4      850
## 3   2013     1     1      542            540         2      923
## 4   2013     1     1      544            545        -1     1004
## 5   2013     1     1      554            600        -6      812
## 6   2013     1     1      554            558        -4      740
## 7   2013     1     1      555            600        -5      913
## 8   2013     1     1      557            600        -3      709
## 9   2013     1     1      557            600        -3      838
## 10  2013     1     1      558            600        -2      753
## # ... with 336,766 more rows, and 14 more variables: sched_arr_time <int>,
## #   arr_delay <dbl>, carrier <chr>, flight <int>, tailnum <chr>,
## #   origin <chr>, dest <chr>, air_time <dbl>, distance <dbl>, hour <dbl>,
## #   minute <dbl>, time_hour <dttm>, gain <dbl>, gain_per_hour <dbl>
…
n(): the number of observations in the current group

n_distinct(x):the number of unique values in x.

first(x), last(x) and nth(x, n) - these work similarly to x[1], x[length(x)], and x[n] but give you more control over the result if the value is missing.

For example, we could use these to find the number of planes and the number of flights that go to each possible destination:

destinations <- group_by(flights, dest)
summarise(destinations,
  planes = n_distinct(tailnum),
  flights = n()
)

## # A tibble: 105 × 3
##     dest planes flights
##    <chr>  <int>   <int>
## 1    ABQ    108     254
## 2    ACK     58     265
## 3    ALB    172     439
## 4    ANC      6       8
## 5    ATL   1180   17215
## 6    AUS    993    2439
## 7    AVL    159     275
## 8    BDL    186     443
## 9    BGR     46     375
## 10   BHM     45     297
## # ... with 95 more rows
…
While the class variable is limited to a manageable 3 values, the fare is again a continuous variable that needs to be reduced to something that can be easily tabulated. Let’s bin the fares into less than $10, between $10 and $20, $20 to $30 and more than $30 and store it to a new variable:

train$Fare2 <- '30+'
 train$Fare2[train$Fare < 30 & train$Fare >= 20] <- '20-30'
 train$Fare2[train$Fare < 20 & train$Fare >= 10] <- '10-20'
train$Fare2[train$Fare < 10] <- '<10'

Use the summarise function to compute the proportions and in each group defined by child, gender and Fare2:

Find strong differences between male/female survival probabilities.

Partition your data into even finer subgroups, e.g. age and/or embarkation port and repeat.

## Source: local data frame [41 x 6]
## Groups: Child, Fare2, Sex [?]
## 
##    Child Fare2    Sex Embarked `round(mean(Survived), 2)`
##    <dbl> <chr> <fctr>   <fctr>                      <dbl>
## 1      0   <10 female        C                       1.00
## 2      0   <10 female        Q                       0.70
## 3      0   <10 female        S                       0.44
## 4      0   <10   male        C                       0.13
## 5      0   <10   male        Q                       0.07
## 6      0   <10   male        S                       0.10
## 7      0 10-20 female        C                       0.44
## 8      0 10-20 female        Q                       0.83
## 9      0 10-20 female        S                       0.76
## 10     0 10-20   male        C                       0.45
## # ... with 31 more rows, and 1 more variables: `length(Survived)` <int>
…
