Intro To Text Mining
…
After using unnest_tokens, weve split each row so that there is one token (word) in each row of the new data frame; the default tokenization in unnest_tokens() is for single words, as shown here. Also notice:

Other columns, such as the line number each word came from, are retained.

Punctuation has been stripped.

By default, unnest_tokens() converts the tokens to lowercase, which makes them easier to compare or combine with other datasets. (Use the to_lower = FALSE argument to turn off this behavior).

Just for kicks, what are the most common words in these novels of H.G. Wells?

tidy_hgwells %>%
  count(word, sort = TRUE)

## # A tibble: 11,769 x 2
##    word       n
##    <chr>  <int>
##  1 time     454
##  2 people   302
##  3 door     260
##  4 heard    249
##  5 black    232
##  6 stood    229
##  7 white    222
##  8 hand     218
##  9 kemp     213
## 10 eyes     210
## # ... with 11,759 more rows
Now lets get some well-known works of the Bront sisters, whose lives overlapped with Jane Austens somewhat but who wrote in a rather different style. Lets get Jane Eyre, Wuthering Heights, The Tenant of Wildfell Hall, Villette, and Agnes Grey. We will again use the Project Gutenberg ID numbers for each novel and access the texts using gutenberg_download().

bronte <- gutenberg_download(c(1260, 768, 969, 9182, 767))
save(bronte, file="data/bronte.rda")

tidy_bronte <- bronte %>%
  unnest_tokens(word, text) %>%
  anti_join(stop_words)

What are the most common words in these novels of the Bronte sisters?

tidy_bronte %>%
  count(word, sort = TRUE)

## # A tibble: 23,050 x 2
##    word       n
##    <chr>  <int>
##  1 time    1065
##  2 miss     855
##  3 day      827
##  4 hand     768
##  5 eyes     713
##  6 night    647
##  7 heart    638
##  8 looked   602
##  9 door     592
## 10 half     586
## # ... with 23,040 more rows

Interesting that time, eyes, and hand are in the top 10 for both H.G. Wells and the Bronte sisters.

Tidy DocumentTermMatrix

By hand: calculate the frequency for each word for the works of the Bronte sisters, and H.G. Wells by binding the data frames together.

frequency <- bind_rows(mutate(tidy_bronte, author = "Bronte Sisters"),
                       mutate(tidy_hgwells, author = "H.G. Wells") ) %>% 
  mutate(word = str_extract(word, "[a-z']+")) %>%
  count(gutenberg_id, word) 

frequency

## # A tibble: 71,964 x 3
##    gutenberg_id word             n
##           <int> <chr>        <int>
##  1           35 a                1
##  2           35 abandon          1
##  3           35 abandoned        1
##  4           35 abnormally       1
##  5           35 abominable       2
##  6           35 abominations     1
##  7           35 abruptly         4
##  8           35 absence          4
##  9           35 absent           1
## 10           35 absolute         7
## # ... with 71,954 more rows
…
book_words <- tidy_bronte %>% count(gutenberg_id, word, sort = TRUE) %>%   ungroup()

book_words

## # A tibble: 51,757 x 3
##    gutenberg_id word           n
##           <int> <chr>      <int>
##  1          768 heathcliff   421
##  2          768 linton       346
##  3         1260 jane         342
##  4          768 catherine    336
##  5         9182 madame       331
##  6         1260 rochester    317
##  7         1260 sir          315
##  8         1260 miss         310
##  9          969 time         304
## 10         9182 day          249
## # ... with 51,747 more rows
…
